%YAML 1.1
%TAG !u! tag:unity3d.com,2011:
--- !u!1045 &1
EditorBuildSettings:
  m_ObjectHideFlags: 0
  serializedVersion: 2
  m_Scenes:
  - enabled: 1
    path: Assets/BridgeScene.unity
    guid: b5c9573f12fbc9d4194b968265147be7
  m_configObjects: {}
